<svg width="32" height="32" viewBox="0 0 32 32" fill="none" xmlns="http://www.w3.org/2000/svg">
<path fill-rule="evenodd" clip-rule="evenodd" d="M1 17C1 18.0264 1.39156 19.0528 2.17469 19.836L13.164 30.8253C14.7303 32.3916 17.2697 32.3916 18.836 30.8253L29.8253 19.836C30.6084 19.0528 31 18.0264 31 17V15H30.4669C30.2947 14.7011 30.0809 14.4196 29.8253 14.164L18.836 3.17469C17.2697 1.60844 14.7303 1.60844 13.164 3.17469L2.17469 14.164C1.91913 14.4196 1.70527 14.7011 1.5331 15H1V17Z" fill="black"/>
<path d="M2.52825 12.5176L13.5176 1.52825C14.8886 0.157251 17.1114 0.157251 18.4824 1.52825L29.4718 12.5176C30.8427 13.8886 30.8427 16.1114 29.4718 17.4824L18.4824 28.4718C17.1114 29.8427 14.8886 29.8427 13.5176 28.4718L2.52825 17.4824C1.15725 16.1114 1.15725 13.8886 2.52825 12.5176Z" fill="#25A797" stroke="black"/>
<path d="M12.1129 20V8.36364H19.9538V10.392H14.5732V13.1648H19.5504V15.1932H14.5732V17.9716H19.9766V20H12.1129Z" fill="white"/>
</svg>
