<svg width="32" height="32" viewBox="0 0 32 32" fill="none" xmlns="http://www.w3.org/2000/svg">
<rect x="2" y="3" width="28" height="28" rx="4" fill="black"/>
<rect x="2.5" y="1.5" width="27" height="27" rx="3.5" fill="#3450B5" stroke="black"/>
<path d="M15.3161 21H11.1911V9.36364H15.3501C16.5206 9.36364 17.5282 9.59659 18.3729 10.0625C19.2176 10.5246 19.8672 11.1894 20.3217 12.0568C20.7801 12.9242 21.0092 13.9621 21.0092 15.1705C21.0092 16.3826 20.7801 17.4242 20.3217 18.2955C19.8672 19.1667 19.2138 19.8352 18.3615 20.3011C17.513 20.767 16.4979 21 15.3161 21ZM13.6513 18.892H15.2138C15.9411 18.892 16.5528 18.7633 17.049 18.5057C17.549 18.2443 17.924 17.8409 18.174 17.2955C18.4278 16.7462 18.5547 16.0379 18.5547 15.1705C18.5547 14.3106 18.4278 13.608 18.174 13.0625C17.924 12.517 17.5509 12.1155 17.0547 11.858C16.5585 11.6004 15.9467 11.4716 15.2195 11.4716H13.6513V18.892Z" fill="black"/>
</svg>
