<svg width="32" height="32" viewBox="0 0 32 32" fill="none" xmlns="http://www.w3.org/2000/svg">
<path fill-rule="evenodd" clip-rule="evenodd" d="M16 32C24.2843 32 31 25.2843 31 17V15H30.8678C29.89 7.66128 23.6062 2 16 2C8.39385 2 2.10996 7.66128 1.13217 15H1V17C1 25.2843 7.71573 32 16 32Z" fill="black"/>
<circle cx="16" cy="15" r="14.5" fill="white" stroke="black"/>
<path d="M15.607 8.24432C15.7677 7.91856 16.2323 7.91856 16.393 8.24432L18.2166 11.9393C18.2804 12.0686 18.4039 12.1583 18.5466 12.1791L22.6243 12.7716C22.9838 12.8238 23.1273 13.2656 22.8672 13.5192L19.9166 16.3953C19.8133 16.496 19.7661 16.6411 19.7905 16.7832L20.487 20.8444C20.5485 21.2024 20.1727 21.4755 19.8511 21.3064L16.204 19.389C16.0763 19.3219 15.9237 19.3219 15.796 19.389L12.1489 21.3064C11.8273 21.4755 11.4515 21.2024 11.513 20.8444L12.2095 16.7832C12.2339 16.6411 12.1867 16.496 12.0834 16.3953L9.13284 13.5192C8.8727 13.2656 9.01625 12.8238 9.37574 12.7716L13.4534 12.1791C13.5961 12.1583 13.7195 12.0686 13.7834 11.9393L15.607 8.24432Z" fill="black"/>
</svg>
