<?xml version="1.0" encoding="UTF-8"?>
<svg width="16px" height="16px" viewBox="0 0 16 16" version="1.1" xmlns="http://www.w3.org/2000/svg" xmlns:xlink="http://www.w3.org/1999/xlink">
    <title>all</title>
    <g id="all" stroke="none" stroke-width="1" fill="none" fill-rule="evenodd">
        <circle id="Oval" fill="#14C478" cx="8" cy="8" r="8"></circle>
        <path d="M11.2317787,4.3598156 C11.5853428,3.9355387 12.2159075,3.87821464 12.6401844,4.23177872 C13.0644613,4.5853428 13.1217854,5.2159075 12.7682213,5.6401844 L7.76822128,11.6401844 C7.39177278,12.0919226 6.70869418,12.1229077 6.29289322,11.7071068 L3.29289322,8.70710678 C2.90236893,8.31658249 2.90236893,7.68341751 3.29289322,7.29289322 C3.68341751,6.90236893 4.31658249,6.90236893 4.70710678,7.29289322 L6.932,9.517 L11.2317787,4.3598156 Z" id="Path" fill="#FFFFFF" fill-rule="nonzero"></path>
    </g>
</svg>