<?xml version="1.0" encoding="UTF-8"?>
<svg width="16px" height="16px" viewBox="0 0 16 16" version="1.1" xmlns="http://www.w3.org/2000/svg" xmlns:xlink="http://www.w3.org/1999/xlink">
    <title>restricted</title>
    <g id="restricted" stroke="none" stroke-width="1" fill="none" fill-rule="evenodd">
        <path d="M0,4.82842712 L0,11.1715729 C0,11.7020059 0.210713681,12.2107137 0.585786438,12.5857864 L3.41421356,15.4142136 C3.78928632,15.7892863 4.29799415,16 4.82842712,16 L11.1715729,16 C11.7020059,16 12.2107137,15.7892863 12.5857864,15.4142136 L15.4142136,12.5857864 C15.7892863,12.2107137 16,11.7020059 16,11.1715729 L16,4.82842712 C16,4.29799415 15.7892863,3.78928632 15.4142136,3.41421356 L12.5857864,0.585786438 C12.2107137,0.210713681 11.7020059,0 11.1715729,0 L4.82842712,0 C4.29799415,0 3.78928632,0.210713681 3.41421356,0.585786438 L0.585786438,3.41421356 C0.210713681,3.78928632 0,4.29799415 0,4.82842712 Z" id="Path-3" fill="#FF5888"></path>
        <path d="M5.31615385,4.02 C5.52128205,4.02 5.6874359,4.07948718 5.81461538,4.19846154 C5.94179487,4.3174359 6.00538462,4.45076923 6.00538462,4.59846154 L6.00538462,11.4415385 C6.00538462,11.5892308 5.94179487,11.7225641 5.81461538,11.8415385 C5.6874359,11.9605128 5.52128205,12.02 5.31615385,12.02 C5.08641026,12.02 4.90589744,11.9605128 4.77461538,11.8415385 C4.64333333,11.7225641 4.57769231,11.5892308 4.57769231,11.4415385 L4.57769231,5.32461538 L3.37153846,5.32461538 C3.15820513,5.32461538 2.98794872,5.26512821 2.86076923,5.14615385 C2.73358974,5.02717949 2.67,4.87333333 2.67,4.68461538 C2.67,4.47948718 2.73358974,4.3174359 2.86076923,4.19846154 C2.98794872,4.07948718 3.15820513,4.02 3.37153846,4.02 L5.31615385,4.02 Z" id="Path" fill="#FFFFFF" fill-rule="nonzero"></path>
        <path d="M10.2906061,4 C10.7592929,4 11.1592929,4.05656566 11.4906061,4.16969697 C11.8219192,4.28282828 12.0906061,4.43434343 12.2966667,4.62424242 C12.5027273,4.81414141 12.6522222,5.03434343 12.7451515,5.28484848 C12.8380808,5.53535354 12.8845455,5.7979798 12.8845455,6.07272727 L12.8845455,6.18181818 C12.8845455,6.52929293 12.7815152,6.86060606 12.5754545,7.17575758 C12.3693939,7.49090909 12.0845455,7.72929293 11.7209091,7.89090909 C12.2057576,8.04444444 12.5633333,8.27474747 12.7936364,8.58181818 C13.0239394,8.88888889 13.1390909,9.24848485 13.1390909,9.66060606 L13.1390909,9.76969697 C13.1390909,10.0444444 13.0946465,10.3151515 13.0057576,10.5818182 C12.9168687,10.8484848 12.7633333,11.0868687 12.5451515,11.2969697 C12.3269697,11.5070707 12.0360606,11.6767677 11.6724242,11.8060606 C11.3087879,11.9353535 10.8522222,12 10.3027273,12 C9.75323232,12 9.29464646,11.9353535 8.9269697,11.8060606 C8.55929293,11.6767677 8.26434343,11.5070707 8.04212121,11.2969697 C7.81989899,11.0868687 7.66232323,10.8484848 7.56939394,10.5818182 C7.47646465,10.3151515 7.43,10.0444444 7.43,9.76969697 L7.43,9.66060606 C7.43,9.24848485 7.54515152,8.88888889 7.77545455,8.58181818 C8.00575758,8.27474747 8.36333333,8.04444444 8.84818182,7.89090909 C8.48454545,7.72929293 8.19969697,7.49090909 7.99363636,7.17575758 C7.78757576,6.86060606 7.68454545,6.52929293 7.68454545,6.18181818 L7.68454545,6.07272727 C7.68454545,5.7979798 7.7310101,5.53535354 7.82393939,5.28484848 C7.91686869,5.03434343 8.06838384,4.81414141 8.27848485,4.62424242 C8.48858586,4.43434343 8.75727273,4.28282828 9.08454545,4.16969697 C9.41181818,4.05656566 9.81383838,4 10.2906061,4 Z M10.2906061,5.21212121 C9.89464646,5.21212121 9.59767677,5.3030303 9.39969697,5.48484848 C9.20171717,5.66666667 9.10272727,5.9030303 9.10272727,6.19393939 L9.10272727,6.44848485 C9.10272727,6.56969697 9.1310101,6.68686869 9.18757576,6.8 C9.24414141,6.91313131 9.32494949,7.01414141 9.43,7.1030303 C9.53505051,7.19191919 9.66030303,7.26464646 9.80575758,7.32121212 C9.95121212,7.37777778 10.1128283,7.40606061 10.2906061,7.40606061 C10.460303,7.40606061 10.6178788,7.37777778 10.7633333,7.32121212 C10.9087879,7.26464646 11.0340404,7.19191919 11.1390909,7.1030303 C11.2441414,7.01414141 11.3249495,6.91313131 11.3815152,6.8 C11.4380808,6.68686869 11.4663636,6.56969697 11.4663636,6.44848485 L11.4663636,6.19393939 C11.4663636,5.9030303 11.3693939,5.66666667 11.1754545,5.48484848 C10.9815152,5.3030303 10.6865657,5.21212121 10.2906061,5.21212121 Z M10.3027273,10.8363636 C10.7633333,10.8363636 11.1148485,10.7272727 11.3572727,10.5090909 C11.599697,10.2909091 11.7209091,10.0363636 11.7209091,9.74545455 L11.7209091,9.53939394 C11.7209091,9.27272727 11.6037374,9.03232323 11.3693939,8.81818182 C11.1350505,8.6040404 10.7794949,8.4969697 10.3027273,8.4969697 C9.81787879,8.4969697 9.45424242,8.6040404 9.21181818,8.81818182 C8.96939394,9.03232323 8.84818182,9.27272727 8.84818182,9.53939394 L8.84818182,9.74545455 C8.84818182,10.0363636 8.97545455,10.2909091 9.23,10.5090909 C9.48454545,10.7272727 9.84212121,10.8363636 10.3027273,10.8363636 Z" id="Shape" fill="#FFFFFF" fill-rule="nonzero"></path>
    </g>
</svg>